\relax 
\providecommand\hyper@newdestlabel[2]{}
\providecommand\HyperFirstAtBeginDocument{\AtBeginDocument}
\HyperFirstAtBeginDocument{\ifx\hyper@anchor\@undefined
\global\let\oldcontentsline\contentsline
\gdef\contentsline#1#2#3#4{\oldcontentsline{#1}{#2}{#3}}
\global\let\oldnewlabel\newlabel
\gdef\newlabel#1#2{\newlabelxx{#1}#2}
\gdef\newlabelxx#1#2#3#4#5#6{\oldnewlabel{#1}{{#2}{#3}}}
\AtEndDocument{\ifx\hyper@anchor\@undefined
\let\contentsline\oldcontentsline
\let\newlabel\oldnewlabel
\fi}
\fi}
\global\let\hyper@last\relax 
\gdef\HyperFirstAtBeginDocument#1{#1}
\providecommand\HyField@AuxAddToFields[1]{}
\providecommand\HyField@AuxAddToCoFields[2]{}
\bibstyle{elsarticle-num}
\Newlabel{cor1}{1}
\Newlabel{cor2}{2}
\citation{Bertoni:2010by}
\citation{Ahmet:1990eg}
\citation{Perrino:1996pr}
\citation{Tsujita:1996tk,Denisov:2004ag,Kichimi:2000,Wu:2005xk}
\citation{Bernet:2005yy}
\citation{Abgrall:2014xwa}
\citation{Bonivento:2013jag}
\citation{Anelli:2015pba}
\citation{Anelli:2015pba}
\Newlabel{1}{a}
\Newlabel{2}{b}
\Newlabel{3}{c}
\@LN@col{1}
\@writefile{toc}{\contentsline {section}{\numberline {1}Introduction}{1}{section.1}}
\newlabel{sec:Introduction}{{1}{1}{Introduction}{section.1}{}}
\@LN@col{2}
\citation{Delagnes:WAVECATCHER}
\citation{Delagnes:SAMPIC}
\citation{Anelli:2015pba}
\citation{SCIONIX}
\@LN@col{1}
\@LN@col{2}
\@writefile{lof}{\contentsline {figure}{\numberline {1}{\ignorespaces Schematic top view of the experimental setup. The outputs of all 6 PMTs are connected to a single acquisition module.}}{2}{figure.1}}
\newlabel{fig:setup}{{1}{2}{Schematic top view of the experimental setup. The outputs of all 6 PMTs are connected to a single acquisition module}{figure.1}{}}
\@writefile{toc}{\contentsline {section}{\numberline {2}Experimental setup}{2}{section.2}}
\newlabel{sec:Setup}{{2}{2}{Experimental setup}{section.2}{}}
\@writefile{toc}{\contentsline {subsection}{\numberline {2.1}Plastic bar and PMTs}{2}{subsection.2.1}}
\newlabel{sec:Setup_plastic}{{2.1}{2}{Plastic bar and PMTs}{subsection.2.1}{}}
\citation{SCIONIX}
\citation{Hamamatsu}
\citation{Wu:2005xk}
\citation{Brooks_CLASS}
\citation{SCIONIX}
\citation{Hamamatsu}
\citation{Wu:2005xk}
\citation{Brooks_CLASS}
\citation{Brooks_CLASS}
\citation{Hamamatsu}
\citation{Hamamatsu}
\@LN@col{1}
\@writefile{lof}{\contentsline {figure}{\numberline {2}{\ignorespaces  Emission spectrum of EJ-200\nobreakspace  {}\cite  {SCIONIX} (arbitrary units) overlaid with the quantum efficiency of the PMT\nobreakspace  {}\cite  {Hamamatsu}, the reflection efficiency of an aluminium foil\nobreakspace  {}\cite  {Wu:2005xk} and the attenuation length\footnotemark \nobreakspace  {}\cite  {Brooks_CLASS} (right axis). }}{3}{figure.2}}
\newlabel{fig:sensitivity}{{2}{3}{Emission spectrum of EJ-200~\cite {SCIONIX} (arbitrary units) overlaid with the quantum efficiency of the PMT~\cite {Hamamatsu}, the reflection efficiency of an aluminium foil~\cite {Wu:2005xk} and the attenuation length\protect \footnotemark ~\cite {Brooks_CLASS} (right axis)}{figure.2}{}}
\@LN@col{2}
\@writefile{toc}{\contentsline {subsection}{\numberline {2.2}Beam and trigger system}{3}{subsection.2.2}}
\citation{Delagnes:WAVECATCHER}
\citation{Delagnes:SAMPIC}
\citation{Delagnes:WAVECATCHER,Delagnes:SAMPIC}
\citation{Delagnes:WAVECATCHER}
\citation{Delagnes:SAMPIC}
\@LN@col{1}
\@writefile{toc}{\contentsline {section}{\numberline {3}DAQ electronics}{4}{section.3}}
\newlabel{DAQ}{{3}{4}{DAQ electronics}{section.3}{}}
\@LN@col{2}
\@LN@col{1}
\@writefile{lof}{\contentsline {figure}{\numberline {3}{\ignorespaces  Superposition of examples of differences between the reference time and the times measured by PMT1 for different positions along the $x$ axis. }}{5}{figure.3}}
\newlabel{fig:DT}{{3}{5}{Superposition of examples of differences between the reference time and the times measured by PMT1 for different positions along the $x$ axis}{figure.3}{}}
\@writefile{toc}{\contentsline {section}{\numberline {4}Analysis}{5}{section.4}}
\newlabel{Analysis}{{4}{5}{Analysis}{section.4}{}}
\@LN@col{2}
\@writefile{lof}{\contentsline {figure}{\numberline {4}{\ignorespaces Typical waveforms of a signal detected by PMT1 and PMT2 and recorded by WAVECATCHER at $x=250$\nobreakspace  {}cm. Crosses show signal times at a fraction 0.14 of the pulse amplitudes.}}{5}{figure.4}}
\newlabel{fig:wf}{{4}{5}{Typical waveforms of a signal detected by PMT1 and PMT2 and recorded by WAVECATCHER at $x=250$~cm. Crosses show signal times at a fraction 0.14 of the pulse amplitudes}{figure.4}{}}
\citation{Nelson}
\citation{Wang:2015rva,Delagnes:2016hdo}
\citation{Delagnes:2016hdo}
\citation{Delagnes:2016hdo}
\@LN@col{1}
\newlabel{eq:dT}{{1}{6}{Analysis}{equation.4.1}{}}
\@LN@col{2}
\@writefile{lof}{\contentsline {figure}{\numberline {5}{\ignorespaces Time resolution of the counter as viewed by PMT1 as a function of the fraction used in dCFD. The different sets of points correspond to different distances between the interaction position and the PMT.}}{6}{figure.5}}
\newlabel{fig:CFD}{{5}{6}{Time resolution of the counter as viewed by PMT1 as a function of the fraction used in dCFD. The different sets of points correspond to different distances between the interaction position and the PMT}{figure.5}{}}
\@writefile{toc}{\contentsline {section}{\numberline {5}Results}{6}{section.5}}
\newlabel{sec:Results}{{5}{6}{Results}{section.5}{}}
\citation{Tsujita:1996tk}
\@writefile{lof}{\contentsline {figure}{\numberline {6}{\ignorespaces Time as measured by PMT1 and PMT2 as a function of the interaction position $x$ along the bar. }}{7}{figure.6}}
\newlabel{fig:TvsX}{{6}{7}{Time as measured by PMT1 and PMT2 as a function of the interaction position $x$ along the bar}{figure.6}{}}
\@writefile{lof}{\contentsline {figure}{\numberline {7}{\ignorespaces The effective average signal velocity along the $x$ axis (top) and reflection angle (bottom) as a function of position along the bar, as viewed by PMT1.}}{7}{figure.7}}
\newlabel{fig:VvsX}{{7}{7}{The effective average signal velocity along the $x$ axis (top) and reflection angle (bottom) as a function of position along the bar, as viewed by PMT1}{figure.7}{}}
\@LN@col{2}
\@writefile{lof}{\contentsline {figure}{\numberline {9}{\ignorespaces Ratio of the time resolution obtained with the fit method and that obtained using a linear interpolation in the dCFD technique. Data were recorded by a single PMT. The line represents a fit by a linear function.}}{7}{figure.9}}
\newlabel{fig:FitvsInt}{{9}{7}{Ratio of the time resolution obtained with the fit method and that obtained using a linear interpolation in the dCFD technique. Data were recorded by a single PMT. The line represents a fit by a linear function}{figure.9}{}}
\@writefile{lof}{\contentsline {figure}{\numberline {8}{\ignorespaces Time resolution as a function of a distance obtained in measurements with WAVECATCHER (left) and SAMPIC (right), resulting from a dCFD analysis with a fit of the signal rise edge. The bar resolution obtained using a simple average and a weighted average of the signals from the two PMTs are also shown. Solid curves represent results of the empirical fit. They are used to calculate parameters of the dashed curves which correspond to the average resolutions. }}{8}{figure.8}}
\newlabel{fig:dT_WC_SAM}{{8}{8}{Time resolution as a function of a distance obtained in measurements with WAVECATCHER (left) and SAMPIC (right), resulting from a dCFD analysis with a fit of the signal rise edge. The bar resolution obtained using a simple average and a weighted average of the signals from the two PMTs are also shown. Solid curves represent results of the empirical fit. They are used to calculate parameters of the dashed curves which correspond to the average resolutions}{figure.8}{}}
\@LN@col{1}
\newlabel{Eq:aver}{{2}{8}{Results}{equation.5.2}{}}
\@LN@col{2}
\newlabel{Eq:weight}{{3}{8}{Results}{equation.5.3}{}}
\citation{Kuhlen:1990ny,Perrino:1996pr}
\@LN@col{1}
\@writefile{lof}{\contentsline {figure}{\numberline {10}{\ignorespaces Ratio of the time resolution obtained in the dCFD analysis of a single PMT with data acquired by WAVECATCHER and with SAMPIC. The line represents a fit by a linear function.}}{9}{figure.10}}
\newlabel{fig:WCvsSAM}{{10}{9}{Ratio of the time resolution obtained in the dCFD analysis of a single PMT with data acquired by WAVECATCHER and with SAMPIC. The line represents a fit by a linear function}{figure.10}{}}
\@writefile{toc}{\contentsline {subsection}{\numberline {5.1}Resolution vs transverse coordinate}{9}{subsection.5.1}}
\@writefile{lof}{\contentsline {figure}{\numberline {11}{\ignorespaces Ratio of time resolutions obtained in scans at $y=0$\nobreakspace  {}cm and $y=4$\nobreakspace  {}cm for PMT2. The line represents a fit by a constant function. }}{9}{figure.11}}
\newlabel{fig:dTvsY}{{11}{9}{Ratio of time resolutions obtained in scans at $y=0$~cm and $y=4$~cm for PMT2. The line represents a fit by a constant function}{figure.11}{}}
\@LN@col{2}
\@writefile{toc}{\contentsline {subsection}{\numberline {5.2}Phenomenological analysis}{9}{subsection.5.2}}
\newlabel{Sec:phenom_analys}{{5.2}{9}{Phenomenological analysis}{subsection.5.2}{}}
\newlabel{Eq:sigma_t}{{4}{9}{Phenomenological analysis}{equation.5.4}{}}
\citation{Tsujita:1996tk}
\citation{Tsujita:1996tk,Wu:2005xk}
\@LN@col{1}
\@writefile{lof}{\contentsline {figure}{\numberline {12}{\ignorespaces Signal amplitude at one MIP in PMT1 as a function of distance. }}{10}{figure.12}}
\newlabel{fig:FitN}{{12}{10}{Signal amplitude at one MIP in PMT1 as a function of distance}{figure.12}{}}
\@writefile{lof}{\contentsline {figure}{\numberline {13}{\ignorespaces Time resolution as a function of distance. The circles represent data and the solid curve shows the result of the phenomenological fit from Eq.\tmspace  +\thinmuskip {.1667em}(\ref  {Eq:sigma_t}). Different contributions are shown as lines of different styles.}}{10}{figure.13}}
\newlabel{fig:FitT}{{13}{10}{Time resolution as a function of distance. The circles represent data and the solid curve shows the result of the phenomenological fit from Eq.\,(\ref {Eq:sigma_t}). Different contributions are shown as lines of different styles}{figure.13}{}}
\@LN@col{2}
\@writefile{toc}{\contentsline {subsection}{\numberline {5.3}Resolution vs incident angle}{10}{subsection.5.3}}
\bibdata{article}
\bibcite{Bertoni:2010by}{{1}{}{{}}{{}}}
\bibcite{Ahmet:1990eg}{{2}{}{{}}{{}}}
\bibcite{Perrino:1996pr}{{3}{}{{}}{{}}}
\@LN@col{1}
\@writefile{lof}{\contentsline {figure}{\numberline {14}{\ignorespaces Time resolution at the centre of the bar ($x=150$\nobreakspace  {}cm) for various angles of incidence with respect to the bar surface. Circles correspond to a bar rotation in the vertical plane while squares represent a rotation in the horizontal plane. The dashed line is a fit assuming that the number of photons from the particle path length inside the plastic is the only contribution to the resolution. }}{11}{figure.14}}
\newlabel{fig:dT_rot}{{14}{11}{Time resolution at the centre of the bar ($x=150$~cm) for various angles of incidence with respect to the bar surface. Circles correspond to a bar rotation in the vertical plane while squares represent a rotation in the horizontal plane. The dashed line is a fit assuming that the number of photons from the particle path length inside the plastic is the only contribution to the resolution}{figure.14}{}}
\@writefile{toc}{\contentsline {section}{\numberline {6}Conclusions}{11}{section.6}}
\newlabel{sec:Conclusions}{{6}{11}{Conclusions}{section.6}{}}
\@LN@col{2}
\bibcite{Tsujita:1996tk}{{4}{}{{}}{{}}}
\bibcite{Denisov:2004ag}{{5}{}{{}}{{}}}
\bibcite{Kichimi:2000}{{6}{}{{}}{{}}}
\bibcite{Wu:2005xk}{{7}{}{{}}{{}}}
\bibcite{Bernet:2005yy}{{8}{}{{}}{{}}}
\bibcite{Abgrall:2014xwa}{{9}{}{{}}{{}}}
\bibcite{Bonivento:2013jag}{{10}{}{{}}{{}}}
\bibcite{Anelli:2015pba}{{11}{}{{}}{{}}}
\bibcite{Delagnes:WAVECATCHER}{{12}{}{{}}{{}}}
\bibcite{Delagnes:SAMPIC}{{13}{}{{}}{{}}}
\bibcite{SCIONIX}{{14}{}{{}}{{}}}
\bibcite{Hamamatsu}{{15}{}{{}}{{}}}
\bibcite{Brooks_CLASS}{{16}{}{{}}{{}}}
\bibcite{Nelson}{{17}{}{{}}{{}}}
\bibcite{Wang:2015rva}{{18}{}{{}}{{}}}
\bibcite{Delagnes:2016hdo}{{19}{}{{}}{{}}}
\bibcite{Kuhlen:1990ny}{{20}{}{{}}{{}}}
\providecommand\NAT@force@numbers{}\NAT@force@numbers
\@LN@col{1}
\@LN@col{2}
